<?xml version="1.0" encoding="utf-8"?>
<!-- Generator: Adobe Illustrator 19.2.0, SVG Export Plug-In . SVG Version: 6.00 Build 0)  -->
<svg version="1.1" id="Layer_1" xmlns="http://www.w3.org/2000/svg" xmlns:xlink="http://www.w3.org/1999/xlink" x="0px" y="0px"
	 viewBox="0 0 645 290" style="enable-background:new 0 0 645 290;" xml:space="preserve">
<style type="text/css">
	.st0{clip-path:url(#SVGID_2_);}
	.st1{fill:#0B528C;}
	.st2{clip-path:url(#SVGID_4_);}
	.st3{fill:#2D2E2D;}
	.st4{fill:#FFFFFF;}
	.st5{fill:#F7A42C;}
	.st6{opacity:0.1;}
</style>
<g>
	<g>
		<defs>
			<path id="SVGID_1_" d="M22,4v253h600V4H22z M369,221.7c-24.2,0-43.8-19.6-43.8-43.8c0-24.2,19.6-43.8,43.8-43.8
				c24.2,0,43.8,19.6,43.8,43.8C412.7,202.1,393.2,221.7,369,221.7z"/>
		</defs>
		<clipPath id="SVGID_2_">
			<use xlink:href="#SVGID_1_"  style="overflow:visible;"/>
		</clipPath>
		<g class="st0">
			<path class="st1" d="M367.5,182.5c-1.1,0-2.1-0.5-2.8-1.4L243.4,22.7l-33.2,41.5c-1,1.3-2.9,1.7-4.3,0.9l-24.7-12.8L116,117.5
				l-5-5l67-67c1.1-1.1,2.7-1.3,4.1-0.6l24.4,12.7l34.2-42.8c0.7-0.8,1.7-1.3,2.8-1.3c1.1,0,2.1,0.5,2.7,1.4l120.9,157.9l70.3-115.6
				c1-1.7,3.2-2.2,4.8-1.2L478,77.6l36.9-37.1c1-1,2.6-1.3,3.9-0.7l96.1,43.5l-2.9,6.4l-93.9-42.5L481,84.5
				c-1.1,1.1-2.9,1.4-4.3,0.5l-35-21.2l-71.2,117c-0.6,1-1.6,1.6-2.8,1.7C367.6,182.5,367.6,182.5,367.5,182.5z"/>
		</g>
	</g>
	<g>
		<defs>
			<circle id="SVGID_3_" cx="369" cy="177.9" r="43.8"/>
		</defs>
		<clipPath id="SVGID_4_">
			<use xlink:href="#SVGID_3_"  style="overflow:visible;"/>
		</clipPath>
		<g class="st2">
			<path class="st1" d="M366.5,197c-1.9,0-3.6-0.9-4.8-2.4L242.4,38.7l-31.2,39c-1.8,2.2-4.9,2.9-7.4,1.6l-23.1-12l-63.9,63.9
				l-8.5-8.5l67-67c1.8-1.8,4.7-2.3,7-1.1l22.6,11.7l32.9-41.2c1.2-1.4,2.9-2.3,4.7-2.3c1.8,0,3.6,0.9,4.7,2.4l118.7,155l68.4-112.5
				c1.7-2.8,5.4-3.7,8.2-2l34,20.6l35.5-35.7c1.8-1.8,4.4-2.3,6.7-1.2L615,93L610,104l-92.3-41.8l-35.9,36.1c-2,2-5,2.3-7.4,0.9
				l-32.9-19.9l-69.9,114.9c-1,1.7-2.8,2.8-4.8,2.9C366.7,197,366.6,197,366.5,197z"/>
		</g>
	</g>
	<g>
		<path class="st3" d="M33.7,106.2h64.8v11.1H45v35.5h53.1v11.1H45v44.5h53.1v11.1H33.7V106.2z"/>
		<path class="st3" d="M109.6,135.7h12.9l22.3,30.6l22-30.6h12.9l-28.5,39.5l32.1,44.2h-13.1l-25.5-35.2l-25.3,35.2h-12.9l31.7-44.1
			L109.6,135.7z"/>
		<path class="st3" d="M194.1,135.7h10.8v15.4c4.3-5.8,9.1-10.2,14.7-13.2c5.5-2.9,11.7-4.4,18.5-4.4c11.9,0,22.1,4.3,30.5,12.8
			c8.5,8.6,12.7,18.9,12.7,30.9c0,12.3-4.2,22.8-12.6,31.3c-8.4,8.6-18.5,12.9-30.3,12.9c-6.7,0-12.8-1.4-18.4-4.2
			c-5.6-2.8-10.6-6.9-15.1-12.4v45h-10.8V135.7z M237.2,143.9c-9.3,0-17.2,3.3-23.5,9.8c-6.4,6.5-9.6,14.6-9.6,24.3
			c0,6.4,1.4,12.1,4.3,17.1c2.8,5.1,6.9,9.1,12.2,12.1c5.3,3,10.9,4.5,16.8,4.5c5.8,0,11.2-1.5,16.3-4.5c5.1-3,9.1-7.2,12.2-12.6
			c3-5.4,4.5-11,4.5-16.9c0-5.9-1.5-11.6-4.5-16.9c-3-5.3-7-9.5-12.1-12.4C248.7,145.4,243.2,143.9,237.2,143.9z"/>
		<path class="st3" d="M298,103.4h10.8v116H298V103.4z"/>
		<path class="st3" d="M429.2,135.7h11v12.2c3.3-4.8,6.7-8.4,10.4-10.8c3.6-2.4,7.4-3.6,11.4-3.6c3,0,6.2,0.9,9.5,2.8l-5.6,9.1
			c-2.3-1-4.2-1.5-5.7-1.5c-3.6,0-7.1,1.5-10.4,4.4c-3.3,2.9-5.9,7.5-7.6,13.7c-1.3,4.8-2,14.4-2,28.9v28.3h-11V135.7z"/>
		<path class="st3" d="M545.1,191.6l9.1,4.8c-3,5.8-6.4,10.6-10.3,14.2c-3.9,3.6-8.3,6.3-13.2,8.2c-4.9,1.9-10.4,2.8-16.6,2.8
			c-13.7,0-24.3-4.5-32-13.4c-7.7-8.9-11.5-19.1-11.5-30.3c0-10.6,3.3-20.1,9.8-28.4c8.3-10.6,19.3-15.8,33.2-15.8
			c14.3,0,25.7,5.4,34.2,16.2c6.1,7.6,9.1,17.2,9.2,28.6h-75.3c0.2,9.7,3.3,17.7,9.3,23.9c6,6.2,13.4,9.3,22.3,9.3
			c4.3,0,8.4-0.7,12.4-2.2c4-1.5,7.5-3.4,10.3-5.9C538.7,201.1,541.8,197.1,545.1,191.6z M545.1,169.1c-1.4-5.7-3.5-10.3-6.3-13.8
			c-2.7-3.4-6.4-6.2-10.9-8.3c-4.5-2.1-9.3-3.2-14.2-3.2c-8.2,0-15.3,2.6-21.2,7.9c-4.3,3.8-7.6,9.6-9.8,17.3H545.1z"/>
		<path class="st3" d="M571.9,135.7h11v12.2c3.3-4.8,6.7-8.4,10.4-10.8c3.6-2.4,7.4-3.6,11.4-3.6c3,0,6.2,0.9,9.5,2.8l-5.6,9.1
			c-2.3-1-4.2-1.5-5.7-1.5c-3.6,0-7.1,1.5-10.4,4.4c-3.3,2.9-5.9,7.5-7.6,13.7c-1.3,4.8-2,14.4-2,28.9v28.3h-11V135.7z"/>
	</g>
	<g>
		<path class="st3" d="M429.4,118.2c0.7,0,1.3,0.2,1.8,0.7c0.5,0.5,0.7,1.1,0.7,1.8c0,0.7-0.2,1.3-0.7,1.8c-0.5,0.5-1.1,0.7-1.8,0.7
			c-0.7,0-1.3-0.2-1.8-0.7c-0.5-0.5-0.7-1.1-0.7-1.8c0-0.7,0.2-1.3,0.7-1.8C428.1,118.5,428.7,118.2,429.4,118.2z"/>
		<path class="st3" d="M436.1,117.1l2.5-1.5c1.8,3.3,3.9,4.9,6.2,4.9c1,0,1.9-0.2,2.8-0.7c0.9-0.5,1.6-1.1,2-1.9
			c0.5-0.8,0.7-1.6,0.7-2.5c0-1-0.3-2-1-3c-0.9-1.3-2.6-2.9-5.1-4.8c-2.5-1.9-4.1-3.3-4.7-4.1c-1.1-1.4-1.6-2.9-1.6-4.6
			c0-1.3,0.3-2.5,0.9-3.6c0.6-1.1,1.5-1.9,2.6-2.5c1.1-0.6,2.4-0.9,3.7-0.9c1.4,0,2.7,0.3,4,1c1.2,0.7,2.5,2,3.9,3.9l-2.4,1.9
			c-1.1-1.5-2.1-2.5-2.9-3c-0.8-0.5-1.7-0.7-2.6-0.7c-1.2,0-2.2,0.4-3,1.1c-0.8,0.7-1.2,1.6-1.2,2.7c0,0.7,0.1,1.3,0.4,1.9
			c0.3,0.6,0.8,1.3,1.5,2c0.4,0.4,1.7,1.4,3.9,3c2.6,1.9,4.4,3.6,5.3,5.1c1,1.5,1.4,3,1.4,4.5c0,2.2-0.8,4.1-2.5,5.7
			c-1.6,1.6-3.7,2.4-6,2.4c-1.8,0-3.5-0.5-4.9-1.5C438.7,121.1,437.4,119.4,436.1,117.1z"/>
		<path class="st3" d="M460.2,92.3h2.9v8.2h4.5v2.5H463v19.7h-2.9V103h-3.9v-2.5h3.9V92.3z"/>
		<path class="st3" d="M492.3,100.6v22.2h-2.8v-3.8c-1.2,1.5-2.5,2.5-4,3.3c-1.5,0.7-3.1,1.1-4.9,1.1c-3.1,0-5.8-1.1-8-3.4
			c-2.2-2.3-3.3-5-3.3-8.3c0-3.2,1.1-5.9,3.4-8.2c2.2-2.3,4.9-3.4,8.1-3.4c1.8,0,3.5,0.4,4.9,1.2c1.5,0.8,2.8,1.9,3.9,3.5v-4.1
			H492.3z M480.9,102.7c-1.6,0-3.1,0.4-4.4,1.2c-1.3,0.8-2.4,1.9-3.2,3.3c-0.8,1.4-1.2,2.9-1.2,4.5c0,1.6,0.4,3.1,1.2,4.5
			c0.8,1.4,1.9,2.5,3.2,3.3c1.3,0.8,2.8,1.2,4.3,1.2c1.6,0,3-0.4,4.4-1.2c1.4-0.8,2.5-1.9,3.2-3.2c0.8-1.3,1.1-2.9,1.1-4.5
			c0-2.6-0.8-4.7-2.5-6.4C485.5,103.6,483.4,102.7,480.9,102.7z"/>
		<path class="st3" d="M500.3,92.3h2.9v8.2h4.5v2.5h-4.5v19.7h-2.9V103h-3.9v-2.5h3.9V92.3z"/>
	</g>
	<g>
		<path class="st3" d="M521,122.7v-30h6.2c4.5,0,7.7,0.4,9.8,1.1c2.9,1,5.2,2.8,6.8,5.3c1.6,2.5,2.5,5.5,2.5,9c0,3-0.6,5.6-1.9,7.9
			c-1.3,2.3-3,4-5.1,5.1c-2.1,1.1-5,1.6-8.7,1.6H521z M523.9,119.9h3.5c4.1,0,7-0.3,8.6-0.8c2.3-0.7,4-2.1,5.3-4
			c1.3-1.9,1.9-4.2,1.9-7c0-2.9-0.7-5.4-2.1-7.4c-1.4-2-3.3-3.5-5.8-4.2c-1.9-0.6-5-0.9-9.3-0.9h-2.1V119.9z"/>
		<path class="st3" d="M573.5,100.6v22.2h-2.8v-3.8c-1.2,1.5-2.5,2.5-4,3.3c-1.5,0.7-3.1,1.1-4.9,1.1c-3.1,0-5.8-1.1-8-3.4
			c-2.2-2.3-3.3-5-3.3-8.3c0-3.2,1.1-5.9,3.4-8.2c2.2-2.3,4.9-3.4,8.1-3.4c1.8,0,3.5,0.4,4.9,1.2c1.5,0.8,2.8,1.9,3.9,3.5v-4.1
			H573.5z M562.1,102.7c-1.6,0-3.1,0.4-4.4,1.2c-1.3,0.8-2.4,1.9-3.2,3.3c-0.8,1.4-1.2,2.9-1.2,4.5c0,1.6,0.4,3.1,1.2,4.5
			c0.8,1.4,1.9,2.5,3.2,3.3c1.3,0.8,2.8,1.2,4.3,1.2c1.6,0,3-0.4,4.4-1.2c1.4-0.8,2.5-1.9,3.2-3.2c0.8-1.3,1.1-2.9,1.1-4.5
			c0-2.6-0.8-4.7-2.5-6.4C566.7,103.6,564.6,102.7,562.1,102.7z"/>
		<path class="st3" d="M581.6,92.3h2.9v8.2h4.5v2.5h-4.5v19.7h-2.9V103h-3.9v-2.5h3.9V92.3z"/>
		<path class="st3" d="M613.7,100.6v22.2h-2.8v-3.8c-1.2,1.5-2.5,2.5-4,3.3c-1.5,0.7-3.1,1.1-4.9,1.1c-3.1,0-5.8-1.1-8-3.4
			c-2.2-2.3-3.3-5-3.3-8.3c0-3.2,1.1-5.9,3.4-8.2c2.2-2.3,4.9-3.4,8.1-3.4c1.8,0,3.5,0.4,4.9,1.2c1.5,0.8,2.8,1.9,3.9,3.5v-4.1
			H613.7z M602.3,102.7c-1.6,0-3.1,0.4-4.4,1.2c-1.3,0.8-2.4,1.9-3.2,3.3c-0.8,1.4-1.2,2.9-1.2,4.5c0,1.6,0.4,3.1,1.2,4.5
			c0.8,1.4,1.9,2.5,3.2,3.3c1.3,0.8,2.8,1.2,4.3,1.2c1.6,0,3-0.4,4.4-1.2c1.4-0.8,2.5-1.9,3.2-3.2c0.8-1.3,1.1-2.9,1.1-4.5
			c0-2.6-0.8-4.7-2.5-6.4C606.9,103.6,604.8,102.7,602.3,102.7z"/>
	</g>
	<g>
		<circle class="st4" cx="180.5" cy="48" r="7.8"/>
		<path class="st1" d="M180.5,57.8c-5.4,0-9.8-4.4-9.8-9.8s4.4-9.8,9.8-9.8c5.4,0,9.8,4.4,9.8,9.8S185.9,57.8,180.5,57.8z
			 M180.5,42.2c-3.2,0-5.8,2.6-5.8,5.8s2.6,5.8,5.8,5.8s5.8-2.6,5.8-5.8S183.7,42.2,180.5,42.2z"/>
	</g>
	<g>
		<circle class="st4" cx="207.5" cy="62" r="7.8"/>
		<path class="st1" d="M207.5,71.8c-5.4,0-9.8-4.4-9.8-9.8s4.4-9.8,9.8-9.8c5.4,0,9.8,4.4,9.8,9.8S212.9,71.8,207.5,71.8z
			 M207.5,56.2c-3.2,0-5.8,2.6-5.8,5.8s2.6,5.8,5.8,5.8s5.8-2.6,5.8-5.8S210.7,56.2,207.5,56.2z"/>
	</g>
	<g>
		<circle class="st4" cx="243.5" cy="19" r="7.8"/>
		<path class="st1" d="M243.5,28.8c-5.4,0-9.8-4.4-9.8-9.8s4.4-9.8,9.8-9.8c5.4,0,9.8,4.4,9.8,9.8S248.9,28.8,243.5,28.8z
			 M243.5,13.2c-3.2,0-5.8,2.6-5.8,5.8s2.6,5.8,5.8,5.8s5.8-2.6,5.8-5.8S246.7,13.2,243.5,13.2z"/>
	</g>
	<g>
		<circle class="st4" cx="365.5" cy="188" r="11.4"/>
		<path class="st1" d="M365.5,201.4c-7.4,0-13.4-6-13.4-13.4s6-13.4,13.4-13.4c7.4,0,13.4,6,13.4,13.4S372.9,201.4,365.5,201.4z
			 M365.5,178.6c-5.2,0-9.4,4.2-9.4,9.4s4.2,9.4,9.4,9.4s9.4-4.2,9.4-9.4S370.7,178.6,365.5,178.6z"/>
	</g>
	<g>
		<circle class="st4" cx="440.5" cy="60" r="7.8"/>
		<path class="st1" d="M440.5,69.8c-5.4,0-9.8-4.4-9.8-9.8s4.4-9.8,9.8-9.8c5.4,0,9.8,4.4,9.8,9.8S445.9,69.8,440.5,69.8z
			 M440.5,54.2c-3.2,0-5.8,2.6-5.8,5.8s2.6,5.8,5.8,5.8s5.8-2.6,5.8-5.8S443.7,54.2,440.5,54.2z"/>
	</g>
	<g>
		<circle class="st4" cx="478.5" cy="81" r="7.8"/>
		<path class="st1" d="M478.5,90.8c-5.4,0-9.8-4.4-9.8-9.8s4.4-9.8,9.8-9.8c5.4,0,9.8,4.4,9.8,9.8S483.9,90.8,478.5,90.8z
			 M478.5,75.2c-3.2,0-5.8,2.6-5.8,5.8s2.6,5.8,5.8,5.8s5.8-2.6,5.8-5.8S481.7,75.2,478.5,75.2z"/>
	</g>
	<g>
		<circle class="st4" cx="517.5" cy="44" r="7.8"/>
		<path class="st1" d="M517.5,53.8c-5.4,0-9.8-4.4-9.8-9.8s4.4-9.8,9.8-9.8s9.8,4.4,9.8,9.8S522.9,53.8,517.5,53.8z M517.5,38.2
			c-3.2,0-5.8,2.6-5.8,5.8s2.6,5.8,5.8,5.8c3.2,0,5.8-2.6,5.8-5.8S520.7,38.2,517.5,38.2z"/>
	</g>
	<g>
		
			<rect x="408.5" y="202" transform="matrix(0.7071 -0.7071 0.7071 0.7071 -37.4877 358.4967)" class="st5" width="11" height="45"/>
	</g>
	<g class="st6">
		<g>
			<circle class="st3" cx="369" cy="177.9" r="43.8"/>
		</g>
	</g>
	<g>
		<g>
			<path class="st5" d="M369,140c20.9,0,37.9,17,37.9,37.9c0,20.9-17,37.9-37.9,37.9c-20.9,0-37.9-17-37.9-37.9
				C331.1,157,348.1,140,369,140 M369,132c-25.3,0-45.9,20.5-45.9,45.9c0,25.3,20.5,45.9,45.9,45.9c25.3,0,45.9-20.5,45.9-45.9
				C414.8,152.6,394.3,132,369,132L369,132z"/>
		</g>
	</g>
	<g>
		<path class="st4" d="M393.8,170.1c-1,0-2-0.6-2.3-1.6c-2.2-5.6-6.4-10.1-11.9-12.5c-5.5-2.5-11.6-2.6-17.3-0.5
			c-1.3,0.5-2.7-0.2-3.2-1.4c-0.5-1.3,0.1-2.7,1.4-3.2c6.9-2.6,14.4-2.4,21.1,0.6c6.7,3,11.9,8.4,14.5,15.3c0.5,1.3-0.1,2.7-1.4,3.2
			C394.4,170,394.1,170.1,393.8,170.1z"/>
	</g>
</g>
</svg>
