<?xml version="1.0" standalone="no"?>
<!DOCTYPE svg PUBLIC "-//W3C//DTD SVG 1.1//EN" "http://www.w3.org/Graphics/SVG/1.1/DTD/svg11.dtd">
<svg xmlns="http://www.w3.org/2000/svg">
<metadata>Copyright (C) 2020 by original authors @ fontello.com</metadata>
<defs>
<font id="fontello" horiz-adv-x="1000" >
<font-face font-family="fontello" font-weight="400" font-stretch="normal" units-per-em="1000" ascent="850" descent="-150" />
<missing-glyph horiz-adv-x="1000" />
<glyph glyph-name="error" unicode="&#xe804;" d="M500 767c-230 0-417-187-417-417s187-417 417-417 417 187 417 417-187 417-417 417z m0-459c-23 0-42 19-42 42v167c0 23 19 41 42 41s42-18 42-41v-167c0-23-19-42-42-42z m42-166h-84v83h84v-83z" horiz-adv-x="1000" />

<glyph glyph-name="done" unicode="&#xe805;" d="M375 175l-146 146c-16 17-41 17-58 0s-17-42 0-58l175-175c17-17 42-17 58 0l442 441c17 17 17 42 0 59s-42 16-58 0l-413-413z" horiz-adv-x="1000" />

<glyph glyph-name="publish" unicode="&#xe806;" d="M208 642c0-25 17-42 42-42h500c21 0 42 17 42 42s-21 41-42 41h-500c-25 0-42-20-42-41z m100-375h67v-209c0-20 17-41 42-41h166c25 0 42 21 42 41v209h67c37 0 54 46 29 71l-192 191c-16 17-41 17-58 0l-192-191c-25-25-8-71 29-71z" horiz-adv-x="1000" />

<glyph glyph-name="more_vert" unicode="&#xe808;" d="M500 517c46 0 83 37 83 83s-37 83-83 83-83-37-83-83 37-83 83-83z m0-84c-46 0-83-37-83-83s37-83 83-83 83 37 83 83-37 83-83 83z m0-250c-46 0-83-37-83-83s37-83 83-83 83 37 83 83-37 83-83 83z" horiz-adv-x="1000" />

<glyph glyph-name="check_circle" unicode="&#xe809;" d="M500 767c-229 0-417-188-417-417s188-417 417-417 417 188 417 417-188 417-417 417z m-112-596l-150 150c-17 17-17 42 0 58s41 17 58 0l121-121 287 288c17 17 42 17 59 0s16-42 0-58l-317-317c-17-17-42-17-58 0z" horiz-adv-x="1000" />

<glyph glyph-name="first_page" unicode="&#xe80b;" d="M738 188l-163 162 163 163c16 16 16 41 0 58s-42 17-59 0l-191-192c-17-16-17-41 0-58l191-192c17-16 42-16 59 0 16 17 16 42 0 59z m-446 412c25 0 41-17 41-42v-416c0-21-16-42-41-42s-42 21-42 42v416c0 21 17 42 42 42z" horiz-adv-x="1000" />

<glyph glyph-name="more_horiz" unicode="&#xe80c;" d="M250 433c-46 0-83-37-83-83s37-83 83-83 83 37 83 83-37 83-83 83z m500 0c-46 0-83-37-83-83s37-83 83-83 83 37 83 83-37 83-83 83z m-250 0c-46 0-83-37-83-83s37-83 83-83 83 37 83 83-37 83-83 83z" horiz-adv-x="1000" />

<glyph glyph-name="chevron_left" unicode="&#xe80d;" d="M613 571c-17 17-42 17-59 0l-191-192c-17-16-17-41 0-58l191-192c17-16 42-16 59 0s16 42 0 59l-163 162 163 163c16 16 16 41 0 58z" horiz-adv-x="1000" />

<glyph glyph-name="delete_forever" unicode="&#xe812;" d="M250 58c0-45 38-83 83-83h334c46 0 83 38 83 83v417c0 46-37 83-83 83h-334c-45 0-83-37-83-83v-417z m133 325c17 17 42 17 59 0l58-58 58 58c17 17 42 17 59 0 16-16 16-41 0-58l-59-58 59-59c16-16 16-41 0-58s-42-17-59 0l-58 58-58-58c-17-17-42-17-59 0-16 17-16 42 0 58l59 59-59 58c-16 17-16 42 0 58z m263 300l-29 30c-9 8-17 12-29 12h-175c-13 0-21-4-30-12l-29-30h-104c-25 0-42-20-42-41s17-42 42-42h500c21 0 42 17 42 42s-21 41-42 41h-104z" horiz-adv-x="1000" />

<glyph glyph-name="blank" unicode="&#xe819;" d="" horiz-adv-x="1000" />

<glyph glyph-name="account_circle" unicode="&#xe83b;" d="M500 767c-229 0-417-188-417-417s188-417 417-417 417 188 417 417-188 417-417 417z m0-125c71 0 125-54 125-125s-54-125-125-125-125 54-125 125 54 125 125 125z m0-592c-104 0-196 54-250 133 0 84 167 130 250 130 83 0 250-46 250-130-54-79-146-133-250-133z" horiz-adv-x="1000" />

<glyph glyph-name="add_circle_outline" unicode="&#xe83c;" d="M500 558c-25 0-42-16-42-41v-125h-125c-25 0-41-17-41-42s16-42 41-42h125v-125c0-20 17-41 42-41s42 21 42 41v125h125c21 0 41 17 41 42s-20 42-41 42h-125v125c0 21-17 41-42 41z m0 209c-229 0-417-188-417-417s188-417 417-417 417 188 417 417-188 417-417 417z m0-750c-183 0-333 150-333 333s150 333 333 333 333-150 333-333-150-333-333-333z" horiz-adv-x="1000" />

<glyph glyph-name="arrow_drop_down" unicode="&#xe83d;" d="M363 363l108-109c17-16 42-16 58 0l109 109c25 25 8 70-30 70h-216c-38 0-54-45-29-70z" horiz-adv-x="1000" />

<glyph glyph-name="arrow_drop_up" unicode="&#xe83e;" d="M363 338l108 108c17 17 42 17 58 0l109-108c25-25 8-71-30-71h-216c-38 0-54 46-29 71z" horiz-adv-x="1000" />

<glyph glyph-name="asterisk" unicode="&#xe83f;" d="M935 97c-16-24-40-40-69-40-12 0-28 4-40 12l-243 141v-279c0-45-36-81-81-81s-81 36-81 81v279l-243-141c-12-8-28-12-40-12-29 0-57 16-69 40-24 40-8 89 28 109l243 142-243 142c-40 24-52 73-28 109s73 53 109 28l243-141v283c0 45 37 81 81 81s81-36 81-81v-279l243 141c40 25 89 9 109-28 25-40 8-89-28-109l-243-142 243-142c36-24 49-73 28-113z" horiz-adv-x="1000" />

<glyph glyph-name="bookmark_border" unicode="&#xe840;" d="M708 725h-416c-46 0-84-37-84-83v-667l292 125 292-125v667c0 46-38 83-84 83z m0-625l-208 92-208-92v500c0 25 16 42 41 42h334c21 0 41-17 41-42v-500z" horiz-adv-x="1000" />

<glyph glyph-name="bookmark" unicode="&#xe841;" d="M708 725h-416c-46 0-84-37-84-83v-667l292 125 292-125v667c0 46-38 83-84 83z" horiz-adv-x="1000" />

<glyph glyph-name="chevron_right" unicode="&#xe844;" d="M388 571c-17-17-17-42 0-58l162-163-162-162c-17-17-17-42 0-59 16-16 41-16 58 0l192 192c16 17 16 42 0 58l-192 192c-17 17-42 17-58 0z" horiz-adv-x="1000" />

<glyph glyph-name="close" unicode="&#xe845;" d="M763 613c-17 16-42 16-59 0l-204-205-204 205c-17 16-42 16-58 0s-17-42 0-59l204-204-204-204c-17-17-17-42 0-58s41-17 58 0l204 204 204-204c17-17 42-17 59 0s16 41 0 58l-205 204 205 204c16 17 16 42 0 59z" horiz-adv-x="1000" />

<glyph glyph-name="expand_less" unicode="&#xe849;" d="M471 488l-192-192c-16-17-16-42 0-58s42-17 59 0l162 162 163-162c16-17 41-17 58 0 17 16 17 41 0 58l-192 192c-16 16-41 16-58 0z" horiz-adv-x="1000" />

<glyph glyph-name="expand_more" unicode="&#xe84a;" d="M663 463l-163-163-162 163c-17 16-42 16-59 0s-16-42 0-59l192-191c17-17 42-17 58 0l192 191c17 17 17 42 0 59-17 16-42 16-58 0z" horiz-adv-x="1000" />

<glyph glyph-name="format_align_left" unicode="&#xe84c;" d="M583 225h-416c-21 0-42-17-42-42 0-20 21-41 42-41h416c25 0 42 21 42 41s-17 42-42 42z m0 333h-416c-21 0-42-20-42-41s21-42 42-42h416c25 0 42 17 42 42s-17 41-42 41z m-416-250h666c21 0 42 17 42 42s-21 42-42 42h-666c-21 0-42-17-42-42s21-42 42-42z m0-333h666c21 0 42 21 42 42s-21 41-42 41h-666c-21 0-42-20-42-41s21-42 42-42z m-42 708c0-25 21-41 42-41h666c21 0 42 16 42 41s-21 42-42 42h-666c-21 0-42-21-42-42z" horiz-adv-x="1000" />

<glyph glyph-name="fullscreen_exit" unicode="&#xe84d;" d="M250 183h83v-83c0-21 17-42 42-42s42 21 42 42v125c0 25-17 42-42 42h-125c-25 0-42-17-42-42s17-42 42-42z m83 334h-83c-25 0-42-21-42-42s17-42 42-42h125c25 0 42 17 42 42v125c0 25-17 42-42 42s-42-21-42-42v-83z m292-459c25 0 42 21 42 42v83h83c21 0 42 17 42 42s-21 42-42 42h-125c-25 0-42-17-42-42v-125c0-25 17-42 42-42z m42 459v83c0 25-17 42-42 42s-42-17-42-42v-125c0-25 17-42 42-42h125c21 0 42 17 42 42s-21 42-42 42h-83z" horiz-adv-x="1000" />

<glyph glyph-name="fullscreen" unicode="&#xe84e;" d="M250 267c-25 0-42-17-42-42v-125c0-21 17-42 42-42h125c25 0 42 21 42 42s-17 42-42 42h-83v83c0 21-17 42-42 42z m0 166c25 0 42 17 42 42v83h83c25 0 42 17 42 42s-17 42-42 42h-125c-25 0-42-21-42-42v-125c0-25 17-42 42-42z m458-291h-83c-25 0-42-21-42-42s17-42 42-42h125c21 0 42 21 42 42v125c0 25-21 42-42 42s-42-17-42-42v-83z m-125 458c0-25 17-42 42-42h83v-83c0-25 21-42 42-42s42 17 42 42v125c0 25-21 42-42 42h-125c-25 0-42-21-42-42z" horiz-adv-x="1000" />

<glyph glyph-name="get_app" unicode="&#xe84f;" d="M692 475h-67v208c0 21-17 42-42 42h-166c-25 0-42-21-42-42v-208h-67c-37 0-54-46-29-71l192-191c17-17 42-17 58 0l192 191c25 25 8 71-29 71z m-484-417c0-20 17-41 42-41h500c21 0 42 21 42 41s-21 42-42 42h-500c-25 0-42-21-42-42z" horiz-adv-x="1000" />

<glyph glyph-name="help" unicode="&#xe850;" d="M500 767c-229 0-417-188-417-417s188-417 417-417 417 188 417 417-188 417-417 417z m42-709h-84v84h84v-84z m87 321l-37-37c-21-21-38-42-42-71-4-13-8-25-8-46h-84v21c0 21 5 37 9 54 8 25 21 46 37 63l50 54c21 16 29 46 25 75-4 29-29 54-58 62-46 13-88-12-104-54 0-12-13-25-29-25h-13c-25 0-42 25-33 46 16 62 71 108 133 117 63 8 125-25 163-75 45-67 33-138-9-184z" horiz-adv-x="1000" />

<glyph glyph-name="info" unicode="&#xe851;" d="M500 767c-229 0-417-188-417-417s188-417 417-417 417 188 417 417-188 417-417 417z m0-625c-25 0-42 21-42 41v167c0 25 17 42 42 42s42-17 42-42v-167c0-25-17-41-42-41z m42 333h-84v83h84v-83z" horiz-adv-x="1000" />

<glyph glyph-name="last_page" unicode="&#xe852;" d="M263 513l162-163-162-162c-17-17-17-42 0-59 16-16 41-16 58 0l192 192c16 17 16 42 0 58l-192 192c-17 17-42 17-58 0-17-17-17-42 0-58z m445 87c21 0 42-17 42-42v-416c0-21-21-42-42-42s-41 21-41 42v416c0 21 21 42 41 42z" horiz-adv-x="1000" />

<glyph glyph-name="layers" unicode="&#xe853;" d="M525 96c-17-13-37-13-50 0l-258 200c-13 12-34 12-50 0-21-17-21-50 0-67l283-221c29-25 71-25 104 0l284 221c20 17 20 50 0 67l0 0c-17 12-38 12-50 0-5 0-263-200-263-200z m25 129l283 217c21 16 21 50 0 66l-283 221c-29 25-71 25-104 0l-279-221c-21-16-21-50 0-66l283-221c29-21 71-21 100 4z" horiz-adv-x="1000" />

<glyph glyph-name="lens" unicode="&#xe854;" d="M500 767c-229 0-417-188-417-417s188-417 417-417 417 188 417 417-188 417-417 417z" horiz-adv-x="1000" />

<glyph glyph-name="menu" unicode="&#xe855;" d="M167 100h666c21 0 42 21 42 42s-21 41-42 41h-666c-21 0-42-20-42-41s21-42 42-42z m0 208h666c21 0 42 17 42 42s-21 42-42 42h-666c-21 0-42-17-42-42s21-42 42-42z m-42 250c0-25 21-41 42-41h666c21 0 42 16 42 41s-21 42-42 42h-666c-21 0-42-21-42-42z" horiz-adv-x="1000" />

<glyph glyph-name="notifications" unicode="&#xe858;" d="M500-67c46 0 83 38 83 84h-166c0-46 37-84 83-84z m250 250v209c0 129-67 233-187 262v29c0 34-30 63-63 63s-62-29-62-63v-29c-121-29-188-133-188-262v-209l-54-54c-25-25-8-71 29-71h550c38 0 54 46 29 71l-54 54z" horiz-adv-x="1000" />

<glyph glyph-name="refresh" unicode="&#xe85a;" d="M733 583c-66 71-162 109-266 100-154-16-279-137-296-291-25-204 133-375 329-375 133 0 246 79 300 191 13 30-8 59-37 59-17 0-30-9-38-21-46-100-158-167-283-138-92 21-167 96-188 188-33 162 92 304 246 304 71 0 129-29 175-75l-62-62c-25-25-9-71 29-71h150c21 0 41 16 41 41v150c0 38-45 55-70 30 0 0-25-30-30-30z" horiz-adv-x="1000" />

<glyph glyph-name="remove_circle" unicode="&#xe85b;" d="M500 767c-229 0-417-188-417-417s188-417 417-417 417 188 417 417-188 417-417 417z m167-459h-334c-25 0-41 17-41 42s16 42 41 42h334c21 0 41-17 41-42s-20-42-41-42z" horiz-adv-x="1000" />

<glyph glyph-name="search" unicode="&#xe85c;" d="M646 267h-33l-13 12c50 59 75 138 63 221-21 117-117 208-234 221-175 21-325-125-304-304 13-117 108-213 221-234 83-12 162 13 221 63l12-13v-33l175-175c17-17 46-17 63 0s16 46 0 63l-171 179z m-250 0c-104 0-188 83-188 187s84 188 188 188 187-84 187-188-83-187-187-187z" horiz-adv-x="1000" />

<glyph glyph-name="settings" unicode="&#xe85d;" d="M869 297c0 15 5 30 5 51 0 20 0 35-5 50l105 85c10 10 10 20 5 30l-101 176c-4 5-15 10-30 5l-125-50c-26 20-56 35-86 50l-20 131c6 15-10 25-20 25h-201c-10 0-25-10-25-20l-20-136c-30-10-55-30-85-50l-121 50c-15 5-25 0-35-10l-101-176c-5-5 0-20 10-30l106-80c0-15-5-30-5-50s0-35 5-51l-105-85c-10-10-10-20-6-30l101-176c5-5 15-10 30-5l126 50c25-20 55-35 85-50l20-131c0-10 10-20 26-20h201c10 0 25 10 25 20l20 131c30 15 60 30 85 50l126-50c10-5 25 0 30 10l101 176c5 10 5 25-5 30l-116 80z m-372-125c-96 0-176 80-176 176s80 175 176 175 176-80 176-175-81-176-176-176z" horiz-adv-x="1000" />

<glyph glyph-name="share" unicode="&#xe85e;" d="M750 179c-33 0-58-12-83-33l-296 175c4 8 4 21 4 29s0 21-4 29l296 171c21-21 50-33 83-33 71 0 125 54 125 125s-54 125-125 125-125-54-125-125c0-9 0-21 4-29l-296-171c-20 21-50 33-83 33-71 0-125-54-125-125s54-125 125-125c33 0 63 13 83 33l296-175c-4-8-4-16-4-25 0-66 54-121 121-121s121 55 121 121-50 121-117 121z" horiz-adv-x="1000" />

<glyph glyph-name="sort" unicode="&#xe85f;" d="M167 100h166c25 0 42 21 42 42s-17 41-42 41h-166c-21 0-42-20-42-41s21-42 42-42z m-42 458c0-25 21-41 42-41h666c21 0 42 16 42 41s-21 42-42 42h-666c-21 0-42-21-42-42z m42-250h416c25 0 42 17 42 42s-17 42-42 42h-416c-21 0-42-17-42-42s21-42 42-42z" horiz-adv-x="1000" />

<glyph glyph-name="swap_horiz" unicode="&#xe860;" d="M254 354l-116-116c-9-9-9-21 0-30l116-116c13-13 38 0 38 16v75h250c25 0 41 17 41 42s-16 42-41 42h-250v75c0 16-25 29-38 12z m604 134l-116 116c-9 17-34 4-34-12v-75h-250c-25 0-41-17-41-42s16-42 41-42h250v-75c0-16 21-29 38-16l117 116c4 9 4 25-5 30z" horiz-adv-x="1000" />

<glyph glyph-name="tune" unicode="&#xe861;" d="M125 100c0-21 21-42 42-42h208v84h-208c-21 0-42-21-42-42z m0 500c0-25 21-42 42-42h375v84h-375c-21 0-42-21-42-42z m417-583v41h291c21 0 42 21 42 42s-21 42-42 42h-291v41c0 25-17 42-42 42s-42-17-42-42v-166c0-21 17-42 42-42s42 17 42 42z m-250 416v-41h-125c-21 0-42-17-42-42s21-42 42-42h125v-41c0-25 16-42 41-42s42 17 42 42v166c0 25-17 42-42 42s-41-21-41-42z m583-83c0 25-21 42-42 42h-375v-84h375c21 0 42 17 42 42z m-208 125c21 0 41 17 41 42v41h125c21 0 42 17 42 42s-21 42-42 42h-125v41c0 21-20 42-41 42s-42-21-42-42v-166c0-25 17-42 42-42z" horiz-adv-x="1000" />

<glyph glyph-name="undo" unicode="&#xe862;" d="M521 517c-108 0-213-42-288-109l-79 80c-25 25-71 8-71-30v-233c0-25 21-42 42-42h233c38 0 55 46 30 71l-80 79c59 50 134 80 213 80 133 0 246-75 300-188 12-25 37-33 62-25 30 8 46 42 34 71-75 146-225 246-396 246z" horiz-adv-x="1000" />

<glyph glyph-name="visibility_off" unicode="&#xe865;" d="M500 579c117 0 208-91 208-208 0-21-4-42-8-63l129-129c59 50 104 117 134 188-75 187-255 316-463 316-54 0-104-8-150-25l92-91c16 8 37 12 58 12z m-387 138c-17-17-17-42 0-59l83-83c-67-54-121-125-154-208 71-179 250-309 458-309 63 0 125 13 179 34l113-113c16-17 41-17 58 0s17 42 0 59l-679 679c-17 16-42 16-58 0z m387-554c-117 0-208 91-208 208 0 33 8 62 21 87l66-66c-4-4-4-13-4-21 0-71 54-125 125-125 8 0 17 0 25 4l67-67c-29-12-59-20-92-20z m125 220c-4 59-50 105-108 109l108-109z" horiz-adv-x="1000" />

<glyph glyph-name="visibility" unicode="&#xe866;" d="M500 683c-208 0-387-129-458-312 71-183 250-313 458-313s388 130 458 313c-70 183-250 312-458 312z m0-520c-117 0-208 91-208 208s91 208 208 208 208-91 208-208-91-208-208-208z m0 333c-71 0-125-54-125-125s54-125 125-125 125 54 125 125-54 125-125 125z" horiz-adv-x="1000" />

<glyph glyph-name="arrow_back" unicode="&#xe867;" d="M792 392h-467l204 204c17 17 17 42 0 58-16 17-41 17-58 0l-275-275c-17-16-17-41 0-58l275-275c17-17 42-17 58 0s17 42 0 58l-204 204h467c21 0 41 17 41 42s-20 42-41 42z" horiz-adv-x="1000" />

<glyph glyph-name="arrow_forward" unicode="&#xe868;" d="M208 308h467l-204-204c-17-16-17-41 0-58s42-17 58 0l275 275c17 17 17 42 0 58l-275 275c-16 17-41 17-58 0-17-16-17-41 0-58l204-204h-467c-25 0-41-17-41-42s16-42 41-42z" horiz-adv-x="1000" />

<glyph glyph-name="label" unicode="&#xe86a;" d="M733 608c-12 21-37 34-66 34l-459 0c-45 0-83-38-83-84v-416c0-46 38-84 83-84l459 0c29 0 54 13 66 34l184 258c0 0-184 258-184 258z" horiz-adv-x="1000" />

<glyph glyph-name="local_offer" unicode="&#xe86b;" d="M892 367l-375 375c-13 16-34 25-59 25h-291c-46 0-84-38-84-84v-291c0-25 9-46 25-59l375-375c17-16 38-25 59-25s46 9 58 25l292 292c16 17 25 38 25 58s-9 46-25 59z m-350-350l-375 375v291h291v0l375-375-291-291z m-271 625c33 0 62-29 62-63s-29-62-62-62-63 29-63 62 30 63 63 63z" horiz-adv-x="1000" />

<glyph glyph-name="insert_chart_outlined" unicode="&#xe86c;" d="M333 142c-25 0-41 21-41 41v209c0 25 16 41 41 41s42-16 42-41v-209c0-20-17-41-42-41z m167 0c-25 0-42 21-42 41v334c0 25 17 41 42 41s42-16 42-41v-334c0-20-17-41-42-41z m167 0c-25 0-42 21-42 41v84c0 25 17 41 42 41 21 0 41-16 41-41v-84c0-20-20-41-41-41z m83-84h-500c-25 0-42 21-42 42v500c0 25 17 42 42 42h500c21 0 42-17 42-42v-500c0-21-21-42-42-42z m42 667h-584c-45 0-83-37-83-83v-584c0-45 38-83 83-83h584c46 0 83 38 83 83v584c0 46-37 83-83 83z" horiz-adv-x="1000" />

<glyph glyph-name="list_alt" unicode="&#xe86d;" d="M500 475h167c21 0 41 17 41 42s-20 41-41 41h-167c-25 0-42-16-42-41s17-42 42-42z m0-167h167c21 0 41 17 41 42s-20 42-41 42h-167c-25 0-42-17-42-42s17-42 42-42z m0-166h167c21 0 41 21 41 41s-20 42-41 42h-167c-25 0-42-17-42-42 0-20 17-41 42-41z m-208 416h83v-83h-83v83z m0-166h83v-84h-83v84z m0-167h83v-83h-83v83z m541 500h-666c-21 0-42-21-42-42v-666c0-21 21-42 42-42h666c21 0 42 21 42 42v666c0 21-21 42-42 42z m-41-667h-584v584h584v-584z" horiz-adv-x="1000" />

<glyph glyph-name="view_compact" unicode="&#xe86e;" d="M125 642v-584h792v584h-792z m83-84h625v-166h-625v166z m0-416v166h167v-166h-167z m250 0v166h375v-166h-375z" horiz-adv-x="1000" />

<glyph glyph-name="arrow_right" unicode="&#xe8d0;" d="M488 213l108 108c17 17 17 42 0 58l-108 109c-25 25-71 8-71-30v-216c0-38 46-54 71-29z" horiz-adv-x="1000" />

<glyph glyph-name="arrow_left" unicode="&#xe8d1;" d="M513 488l-109-109c-16-16-16-41 0-58l109-108c25-25 70-9 70 29v216c0 38-45 55-70 30z" horiz-adv-x="1000" />
</font>
</defs>
</svg>